40008 826248 509
790473 743717 468
654099 469307 509
15996 527078 470
379359 614762 470
618687 270901 470
132280 654133 509
872479 673302 525
503514 326411 449
551987 617646 447
83656 389286 443
963940 656570 525
953102 884673 507
970871 625693 525
929790 810611 525
537782 806659 509
243781 174668 443
896933 894909 370
243561 265888 407
35763 636667 509
791667 119914 509
655364 984394 525
956170 369833 525
487501 130360 449
223864 794436 509
813027 896456 525
998503 3779 525
597505 452858 470
567744 930647 525
981680 542343 525
664176 409684 509
234326 941961 525
283554 35330 443
435167 823891 509
873588 685153 525
205305 50722 383
314580 39874 443
38423 445152 449
810979 677340 504
623171 904170 525
738359 267424 509
535685 888709 525
964135 843180 507
198077 521283 470
747581 627596 504
236547 655804 509
481106 981399 525
85254 519702 470
355072 64378 443
196883 832951 509
642903 194116 509
329731 886706 525
212605 576099 470
603070 339436 470
394714 603995 470
137929 79541 354
378138 496200 449
3216 992179 525
106832 220144 386
888447 551109 525
926940 893578 476
86539 181220 383
578191 261630 470
726039 633943 504
156274 990390 525
416503 69538 449
337907 390458 441
816106 306222 509
790839 188465 509
785890 641551 504
137564 399275 443
29219 988828 525
446828 891212 525
116261 1383 354
144897 892973 525
847952 660261 525
464896 382106 449
562157 7386 470
590257 660001 509
498118 910745 525
264897 443098 449
660596 205195 509
855417 51152 525
440778 943983 525
179429 192010 365
879673 453185 525
762398 44627 509
953552 60799 525
262116 902821 525
927213 264167 525
772811 796564 468
646432 422430 509
292061 596962 470
7162 195371 383
622804 555910 447
10968 848218 525
110866 507206 449
868855 524777 525
16718 12874 276
364090 513112 470
5412 434418 449
883245 280490 525
314723 515861 470
417507 737783 509
824554 90733 509
994282 480104 525
182072 330722 443
822167 483968 509
248232 448220 449
635439 417681 509
766800 26480 509
509087 650833 509
705166 900638 525
592561 429793 470
659714 34645 509
176419 332765 443
76829 68544 325
849474 199152 525
88441 267528 443
450335 527439 470
787618 767793 468
331322 891433 525
599765 562359 434
72344 766488 509
509815 774244 509
235373 835356 509
103479 813558 509
482882 976110 525
561656 619813 447
440919 319136 449
616238 791517 509
999332 755281 525
463489 126353 449
630943 489962 509
165069 589461 470
314649 32302 443
912530 601835 525
521624 23216 470
974588 115573 525
543372 305887 470
832112 777991 468
942621 641125 525
412682 519412 470
825016 101793 509
780734 745549 468
392219 331890 441
443700 348872 449
434114 233476 449
555673 887276 525
707694 507728 509
