10 4 20
806573 432834 509
620971 218366 470
467004 448153 444
486703 817755 509
84527 569304 470
918181 786940 525
439356 372886 449
485732 239027 449
517405 371091 470
577774 915483 525
515255 268127 470
270577 626623 509
370690 195269 443
24633 189149 383
876292 562541 525
134765 288826 443
334064 918827 525
241092 222452 443
843535 892038 445
555298 61169 470
603310 218817 470
430485 633822 509
524336 285965 470
949702 899995 507
312878 546978 470
497150 124509 449
478738 662537 509
322434 92846 443
753252 962697 525
831385 248037 509
207798 391650 443
544350 238845 470
789776 26487 509
611121 785869 509
76779 87917 351
847398 673458 525
986610 13364 525
235348 336218 407
3873 120152 354
371719 550817 470
665065 300259 509
947518 733374 525
864059 204124 525
524290 232940 470
579617 93076 470
265013 558000 470
155734 104518 375
531088 611321 452
933685 829599 525
877240 716359 525
930497 91472 525
346189 114858 443
814464 215780 509
585101 790655 509
550318 694134 509
98119 496749 449
355389 255741 441
414342 577924 470
295714 236888 407
470772 643415 509
526852 793136 509
894361 346795 525
447378 670186 509
969538 192858 525
132326 694197 509
860189 282649 525
277385 234379 407
886223 323929 525
592653 985465 525
841872 520117 525
439025 227689 449
632627 912231 525
916280 202489 525
527676 195676 470
689738 983404 525
859865 587126 525
339078 201693 443
920515 898447 476
254116 571354 470
257631 307874 407
543601 802552 509
626319 24679 470
347581 456058 449
991247 433242 525
288390 264533 407
39486 775080 509
724284 754036 424
484858 309590 449
696263 248980 509
133268 863743 525
186506 301193 443
358698 249492 441
727149 722350 380
532607 127675 470
742341 74112 509
632344 163016 509
280487 675048 509
1686 538021 470
770091 575683 509
309527 203353 443
886938 995165 507
520175 380563 470
847570 448627 525
591593 474708 470
976448 218431 525
755072 633511 504
735707 659933 504
869547 201338 525
758524 146537 509
254920 37007 443
11969 518427 470
771802 280702 509
547280 640305 509
139728 80581 354
190184 424643 449
847023 639048 525
610483 148517 470
839189 798974 525
863122 989190 507
591353 232953 470
567466 379881 470
930297 301092 525
228148 833574 509
367588 776263 509
517188 725613 509
727539 464099 509
411003 964108 525
375772 146964 443
363008 708151 509
721621 868604 525
81358 634075 509
618134 847174 525
28753 210562 383
160240 337359 443
189232 665704 509
548836 912832 525
142744 283898 443
889377 706831 525
313837 562995 470
238753 691824 509
516384 996130 525
564195 677104 509
501517 17277 449
288394 665605 509
111703 919196 525
794052 753862 468
403739 695935 509
447260 173946 449
251456 481082 449
990482 609061 525
117621 822131 509
703828 987944 525
472094 4641 449
770149 307310 509
606668 383775 470
285665 895550 525
888105 948738 507
415678 94556 449
496346 386532 449
897246 453095 525
805339 416596 509
538190 115450 470
254340 174158 443
515423 67291 470
453217 678554 509
735930 328849 509
963373 226058 525
348746 432545 449
428407 430268 312
323085 818937 509
370066 609298 470
824598 559717 509
847746 778068 525
529466 469029 470
557407 581698 421
485157 691959 509
386745 78103 443
964707 496451 525
159368 114160 383
805010 160870 509
459665 971465 525
990673 394202 525
976498 232987 525
451390 247551 449
721175 888125 525
885978 292266 525
901509 979024 507
486767 426254 444
198775 439387 449
557061 652566 509
203631 241708 443
254699 157575 443
345632 870587 525
957011 666207 525
988229 264370 525
622492 662839 509
507899 321222 449
820008 570823 509
434632 990951 525
565671 86874 470
280057 823052 509
537708 868812 525
888405 796409 525
80050 867272 525
236718 254076 368
544291 670084 509
50574 821095 509
340137 631383 509
221904 221419 262
752444 366838 509
90078 337259 443
484220 114419 449
330215 533600 470
939711 996405 458
341275 680269 509
68093 549072 470
226056 921385 525
450137 622214 470
780604 755143 468
745177 585608 509
833294 36382 509
102496 892721 525
248116 669032 509
648468 350187 509
281069 265797 407
961767 710478 525
96732 741836 509
645861 294202 509
786861 964511 525
501235 794099 509
954243 146169 525
3605 347254 443
207593 811901 509
952793 990474 458
589073 630963 509
874182 168173 525
105412 113813 354
637726 226952 509
742797 457741 509
640139 272965 509
184608 490506 449
341526 380706 441
841958 190426 525
547775 383316 470
595420 827709 509
72925 984449 525
209206 474763 449
944164 781505 525
694491 785168 504
629042 691202 442
283323 671896 509
252440 537270 470
127367 474795 449
266770 332688 407
940015 548076 525
785739 482135 509
796793 260569 509
976480 222718 525
125400 263215 443
337643 613471 470
140804 969012 525
51791 296446 443
944562 32861 525
765910 346777 509
218221 564705 470
344097 975027 525
893939 454180 525
987963 468496 525
972526 516188 525
576220 205746 470
644731 770876 504
473249 536302 470
100584 648492 509
966551 787299 525
956579 559302 525
633918 668310 442
551005 855771 525
412844 198646 449
160465 658765 509
424839 459957 400
30987 807530 509
935542 46201 525
382628 300629 441
31869 872522 525
871678 290674 525
981069 209152 525
123600 151864 375
38001 688973 509
937161 354506 525
252268 501151 449
667281 845105 525
78686 658730 509
887535 728812 525
105366 11934 351
885175 488862 525
33999 190385 383
394007 451555 449
782026 634156 504
909830 156025 525
489520 743917 509
793930 608031 509
993737 608521 525
800629 831080 450
573805 430801 470
713483 337744 509
273074 491538 449
945264 793113 525
424021 504902 444
373633 888005 525
378634 241749 441
849743 150257 525
395263 971180 525
498923 798945 509
392365 466049 449
247665 187970 443
400642 987725 525
282020 956225 525
514018 729165 509
254331 198667 443
842037 319008 525
596195 950787 525
357378 83257 443
668257 821466 504
79016 905846 525
791444 326300 509
568116 321814 470
882178 91306 525
823491 514039 509
887360 429699 525
755516 887629 525
669053 264191 509
334199 841664 525
219565 593311 470
924158 135142 525
436025 62642 449
374022 807759 509
561309 325486 470
550795 471237 470
803077 998023 525
459497 447976 387
278687 607524 470
153931 462782 449
642970 646189 354
13356 947475 525
547751 861283 525
484639 147502 449
41713 216102 383
885670 165705 525
578473 489009 470
805372 85037 509
434665 821666 509
672488 770495 504
11182 196410 383
831042 281534 509
762862 95983 509
210798 862833 525
214233 385870 443
309719 411936 449
494787 456405 444
600073 155271 470
481546 125779 449
918449 760809 525
181532 602490 470
298515 750826 509
326272 121465 443
502895 613384 470
148423 6044 375
4389 318779 443
852698 75381 525
925332 618136 525
634484 700416 442
729663 751456 424
245948 493236 449
173778 880903 525
420974 339438 449
442883 896389 525
963479 405740 525
261064 129966 443
661051 243224 509
602761 897597 525
740181 132365 509
839171 229113 525
860328 574200 525
6694 441153 449
997336 250738 525
504466 45548 449
649397 940091 525
540576 887123 525
442725 882134 525
733717 157135 509
23523 791452 509
817149 299567 509
585925 938341 525
538324 119431 470
993404 464884 525
579447 753988 509
92931 307428 443
630563 796726 504
612561 701013 509
945806 653145 525
100684 253105 443
341872 499626 449
867748 386089 525
930002 189286 525
610220 12114 470
271297 650563 509
678935 622648 509
585772 284493 470
633285 596344 509
259554 812255 509
995551 400238 525
666737 392697 509
47301 994520 525
14949 695315 509
140137 906384 525
886998 513353 525
127131 222029 386
640298 83033 509
15707 265083 443
892853 57441 525
375202 9471 443
458686 457348 338
570811 704888 509
199355 218280 386
23522 277213 443
484364 659058 509
634119 621529 509
636994 515498 509
497298 68375 449
900893 597667 525
758969 992341 525
308358 696117 509
910041 199790 525
48621 667030 509
241179 137784 443
655163 399432 509
465810 511319 426
322418 966423 525
875575 682536 525
451247 672811 509
248894 410546 449
274041 348792 441
55421 701570 509
974665 367281 525
609729 454063 470
760491 348624 509
14976 526074 470
724646 996703 525
861067 559065 525
656057 966723 525
690588 995233 525
819970 851487 525
247697 267536 407
463426 271854 449
705726 16451 509
340811 584302 470
565866 205686 470
913804 898534 476
333117 91256 443
602440 918247 525
706846 558295 509
726014 948371 525
676718 508920 509
14547 66963 340
111417 491247 449
11806 810613 509
689031 193014 509
856589 413371 525
420604 155019 449
414168 730899 509
911676 902203 476
872894 716683 525
458164 285690 449
35185 766728 509
233766 56408 443
523209 734104 509
738805 511337 509
526765 363130 470
16210 471126 449
809255 57222 509
267980 14309 443
343741 294283 384
285885 15257 443
551237 146928 470
633397 724153 504
40251 801581 509
128641 860197 525
83913 460373 449
570902 445398 470
590905 300976 470
575509 18897 470
828267 247997 509
590843 718661 509
611952 402676 470
143545 440832 449
886649 4660 525
326296 413592 449
403489 944034 525
839731 416786 525
82981 976135 525
858537 315698 525
356419 136800 443
603640 563637 434
14446 588816 470
953201 572380 525
462362 305054 449
542482 797948 509
64813 625274 470
544682 433879 470
918171 309708 525
957644 216930 525
45951 906466 525
693068 925854 525
774714 531274 509
315079 938484 525
745732 437538 509
135900 499981 449
733095 106191 509
408420 695494 509
499586 997063 525
844431 183604 525
941220 449275 525
721898 579968 509
301302 144381 443
805401 551250 509
481786 910226 525
179988 931272 525
840438 768301 525
598196 57087 470
435462 351291 449
920884 658161 525
436241 666495 509
882390 766389 525
262502 765936 509
607016 821314 509
959095 107020 525
273325 191101 443
431733 379208 449
888471 231647 525
129743 53947 354
130904 170316 383
827356 306853 509
396451 163043 443
72106 299845 443
527070 235943 470
253510 468539 449
945251 443048 525
321101 838006 525
821280 575590 509
562097 806867 509
277134 839255 525
612013 98058 470
709612 486900 509
51377 156955 383
82018 407228 443
167513 756706 509
374064 154469 443
397781 700632 509
585811 274992 470
713894 70163 509
274233 373930 441
339560 124486 443
111301 327092 443
171241 55054 383
580520 176451 470
632304 196289 509
218598 554729 470
609159 797618 509
435250 577092 470
288423 354622 441
495668 252011 449
291733 920792 525
61635 945780 525
571837 309582 470
47312 188578 383
666255 269638 509
249741 505356 449
885417 210276 525
159864 387376 443
890016 533935 525
572577 263437 470
299009 970584 525
981746 920303 507
899639 281987 525
564661 834907 509
346454 138150 443
958286 544927 525
88847 813914 509
352989 535287 470
666618 527512 509
413073 317003 449
454170 193091 449
523434 497356 470
538138 846566 525
304445 514 443
312301 42464 443
467180 631392 509
791647 186448 509
813898 491308 509
750609 857526 525
93752 710202 509
159822 329218 443
396945 949979 525
446842 732243 509
101453 23507 351
454344 89186 449
289011 402329 441
269873 469461 449
746943 793497 468
993239 506622 525
893045 352447 525
300853 697174 509
416954 426889 418
831889 338257 509
52804 461294 449
230320 202691 386
540696 230872 470
439529 679278 509
413303 13564 449
684043 892505 525
458879 667322 509
870270 553167 525
16291 226847 386
551959 746666 509
291763 748744 509
273762 827100 509
551161 645235 509
983836 736429 525
716739 632344 504
328225 447493 449
556612 518168 452
110459 36504 354
176308 826799 509
314222 180943 443
842679 664720 525
464368 385008 449
973819 905633 507
101334 341159 443
780554 428010 509
830657 526984 509
877558 510763 525
677251 203356 509
433639 707700 509
6844 706645 509
939310 367772 525
217274 208420 386
98993 848097 525
678459 885848 525
937499 310565 525
562588 629966 509
147421 253997 443
198021 39485 383
952671 419984 525
695437 370324 509
640364 864985 525
41494 613892 470
819022 294677 509
425824 621123 470
816395 798352 406
497851 569296 470
587974 563066 434
71998 243133 443
441325 544388 470
356275 712301 509
408441 384023 436
439602 348043 449
288930 461545 449
645598 49104 509
643739 473254 509
203931 515959 470
327528 581296 470
691834 357008 509
332251 342662 366
567988 453556 470
805868 865041 525
42265 610131 470
482427 445340 444
282466 392982 441
294481 557699 470
982686 388983 525
885202 658246 525
643546 874685 525
832838 619943 509
408044 965882 525
516031 361364 470
145610 958161 525
330334 632065 509
594686 611035 403
894460 442648 525
749832 251669 509
49439 297368 443
386007 359173 423
963404 227088 525
772768 492766 509
857935 119930 525
578491 229749 470
461981 948867 525
948478 587630 525
159593 735356 509
363425 864357 525
520963 665195 509
645842 969966 525
584409 680591 509
589918 231872 470
913508 558575 525
361426 48375 443
814452 3645 509
695747 774434 504
962126 942142 414
668658 215417 509
422580 979011 525
56448 299335 443
873796 122545 525
825157 543098 509
710442 231161 509
932980 95095 525
163737 444843 449
691059 845274 525
214077 565380 470
760956 541638 509
596849 974528 525
763620 125087 509
854968 918294 476
604515 105620 470
606466 425761 470
103901 726801 509
321512 118703 443
498781 333468 449
244922 91874 443
181836 764653 509
151704 716358 509
402838 239233 441
819815 183294 509
40759 956931 525
611686 687562 509
588542 328840 470
452665 24825 449
575611 229991 470
954484 685477 525
554805 441194 470
513504 419780 470
300 63093 340
616304 999099 525
875871 304884 525
105253 271043 443
546080 145095 470
45337 718874 509
754488 862634 525
508801 593912 470
373472 56607 443
540333 843646 525
746592 590452 509
179633 214376 373
29789 854490 525
671688 724688 504
476170 161219 449
102351 719884 509
707032 397934 509
993252 910629 507
517222 525448 439
824353 711910 468
845581 931023 476
563853 376083 470
807769 515523 509
416090 222320 449
427517 47265 449
739909 634858 504
374062 455248 449
460169 187085 449
732172 834771 468
504208 793276 509
227709 765131 509
298446 968923 525
654812 86804 509
603788 652055 509
646030 789576 504
537839 883498 525
408707 184671 443
672105 827157 504
198291 645845 509
768482 782796 437
984666 398081 525
889326 875811 445
243591 766896 509
385411 698891 509
403555 783955 509
730305 700301 504
338526 441627 449
194543 631646 509
922917 224445 525
254776 224675 443
389404 588186 470
650208 696363 442
517002 654775 509
842199 166123 525
112145 390997 443
527870 738257 509
56679 510028 449
531309 648440 509
493711 413442 444
925165 361527 525
154704 145675 370
940558 440554 525
190676 504418 449
905382 131378 525
692092 277713 509
264414 336798 407
641037 668633 442
241800 192470 443
599643 733005 509
167029 646017 509
122595 206321 383
319629 466794 449
839038 5736 525
719458 200272 509
570768 570106 377
620645 671189 509
814307 948962 525
578139 318107 470
216737 504858 449
412199 500586 444
413961 304842 449
799829 18783 509
838697 709629 525
506983 839059 525
12003 893416 525
196287 924959 525
765425 241004 509
119157 752676 509
229720 282114 443
36002 459991 449
126015 126606 318
434381 445467 400
670124 532291 509
221067 509805 449
988224 382253 525
976163 468410 525
283297 913348 525
335586 699443 509
978694 690306 525
959308 119257 525
991427 19541 525
505754 715646 509
675206 133690 509
715005 178584 509
484462 481087 382
647786 749765 504
948839 352446 525
786202 691037 504
464359 88919 449
386060 632215 509
205765 599505 470
218783 635875 509
240300 489163 449
52245 811974 509
804275 678097 504
418840 669996 509
771974 294080 509
9015 316528 443
846680 938993 476
67936 766592 509
393290 289656 441
410206 961234 525
804128 793141 468
937953 66207 525
946018 681341 525
843045 211592 525
347464 150700 443
217797 540094 470
325078 968091 525
322308 585305 470
219633 565665 470
207355 571915 470
223229 236104 443
716703 860080 525
927287 443643 525
227907 818084 509
549335 535723 452
762780 458826 509
590526 409845 470
496429 626928 509
369233 562425 470
78091 592082 470
94709 484055 449
91949 627118 509
541810 911559 525
314481 138024 443
364741 343662 441
667876 793200 504
660688 299845 509
552921 569294 421
85720 400809 443
593219 851251 525
520891 280998 470
900862 60549 525
781123 589945 509
734431 321780 509
557272 478809 470
419738 653564 509
721544 385344 509
698899 70102 509
574414 332193 470
149534 844752 525
343167 970884 525
884963 859516 432
38942 60908 340
139970 748632 509
401029 732530 509
620608 57094 470
325655 308005 384
763459 389263 509
348285 63902 443
306862 112129 443
551777 871488 525
816114 54939 509
290919 144236 443
948145 213143 525
122726 995516 525
328288 106178 443
3657 103839 351
380129 98711 443
786978 829839 468
605669 640580 509
384690 542385 470
880650 190735 525
599670 211059 470
701352 844102 525
235094 122671 443
883469 466272 525
202091 395025 443
393176 999844 525
385561 155346 443
719932 581158 509
645939 710626 504
219608 614599 470
183690 475383 449
761250 903494 525
96596 287796 443
799853 260221 509
884273 572634 525
803410 450117 509
308379 741548 509
782718 66774 509
78408 239095 443
559847 218791 470
811684 283870 509
664262 51942 509
756567 356080 509
481848 726201 509
70936 466083 449
416354 306058 449
470010 120710 449
81300 179917 383
489336 899480 525
988814 795753 525
615956 857536 525
888662 82744 525
225456 137759 386
365045 318783 441
413480 497143 444
578290 985811 525
436460 740963 509
57530 34069 340
887430 129015 525
657498 585867 509
696107 745512 504
935207 705592 525
557769 739264 509
857880 302646 525
595812 954101 525
796008 135837 509
578403 339373 470
493394 802730 509
839921 571478 525
325745 832118 509
699296 48554 509
294931 839890 525
984639 83575 525
764299 215492 509
77824 551753 470
798395 93397 509
124698 824150 509
278549 154740 443
759979 85276 509
149536 929862 525
113773 590013 470
654565 597711 509
543340 569319 452
729404 27357 509
769869 438294 509
313579 475913 449
759148 420880 509
882759 719896 525
163469 154511 383
61079 508445 449
742816 868588 525
968262 207305 525
734111 565064 509
